Measurement outcome,Frequency
0,2235
1,2123
10,65
11,94
100,12
101,8
110,12
111,16
1000,58
1001,49
1010,2
1011,2
1100,4
1101,7
1110,3
1111,2
10000,1596
10001,1644
10010,6
10011,66
10100,14
10101,9
10110,1
10111,11
11000,27
11001,44
11010,2
11011, 0
11100,9
11101,4
11110,2
11111,2
